/* XPM */
static char * bottom_right_active = {
"3 4 4 1", 
"#	c #000000 s active_color_2", 
"%	c #000000 s active_color_2", 
"+	c #000000 s active_shadow_2", 
".	c None", 
"#%+", 
"%%+", 
"%%+", 
"++.", 
};