/* XPM */
static char * menu_pressed = {
"18 14 4 1", 
".	c None", 
"=	c #000000 s  active_color_2", 
"@	c #FFFFFF", 
"+	c #000000", 
"..................", 
"..................", 
"==================", 
"==================", 
"==================", 
"====@@@@@@@@@@====", 
"====@++++++++@====", 
"=====@++++++@=====", 
"======@++++@======", 
"=======@++@=======", 
"========@@========", 
"==================", 
"==================", 
"==================", 
};