/* XPM */
static char * stick_toggled_active = {
"18 14 4 1", 
".	c None", 
"=	c #000000 s  active_color_2", 
"@	c #000000 s  active_color_2", 
"+	c #202020", 
"..................", 
"..................", 
"==================", 
"=======@@@@=======", 
"======@++++@======", 
"=====@++++++@=====", 
"====@++@@@@++@====", 
"====@++@++@++@====", 
"====@++@++@++@====", 
"====@++@@@@++@====", 
"=====@++++++@=====", 
"======@++++@======", 
"=======@@@@=======", 
"==================", 
};