/* XPM */
static char * hide_pressed = {
"18 14 4 1", 
".	c None", 
"=	c #3C3C3C", 
"@	c #3C3C3C", 
"+	c #FFFFFF", 
"..................", 
"..................", 
"==================", 
"==================", 
"==================", 
"==================", 
"==================", 
"==================", 
"==================", 
"===@@@@@@@@@@@@===", 
"===@++++++++++@===", 
"===@++++++++++@===", 
"===@@@@@@@@@@@@===", 
"==================", 
};